{
	"authHost": "http://localhost",
	"authEndpoint": "/api/v1/broadcasting/auth",
	"clients": [],
	"database": "redis",
	"databaseConfig" : {
		"redis" : {
			"port": "6379",
			"host": "redis"
		}
	},
	"devMode": true,
	"host": null,
	"port": "6001",
	"protocol": "http",
	"socketio": {},
	"sslCertPath": "",
	"sslKeyPath": "",
	"apiOriginAllow": {
		"allowCors": true,
		"allowOrigin": ".",
		"allowMethods": "GET, POST",
		"allowHeaders": "Origin, Content-Type, X-Auth-Token, X-Requested-With, Accept, Authorization, X-CSRF-TOKEN, X-Socket-Id"
 	}
}